Data Manipulation
…
You will sometimes need to export data after you have imported and cleaned it. The write_csv() function addresses this problem.

Data manipulation

Once you’ve imported data, you’re going to need to do some cleaning up.

select

For a given analysis, you may only need a subset of the columns in a data table; extracting only what you need can helpfully de-clutter, especially when you have large datasets. Select columns using select.

You can specify the columns you want to keep by naming all of them:

select(litters_data, group, litter_number, gd0_weight, pups_born_alive)
## # A tibble: 49 × 4
##   group litter_number gd0_weight pups_born_alive
##   <chr> <chr>              <dbl>           <dbl>
## 1 Con7  #85                 19.7               3
## 2 Con7  #1/2/95/2           27                 8
## 3 Con7  #5/5/3/83/3-3       26                 6
## # … with 46 more rows

You can specify the specify a range of columns to keep:

select(litters_data, group:gd_of_birth)
## # A tibble: 49 × 5
##   group litter_number gd0_weight gd18_weight gd_of_birth
##   <chr> <chr>              <dbl>       <dbl>       <dbl>
## 1 Con7  #85                 19.7        34.7          20
## 2 Con7  #1/2/95/2           27          42            19
## 3 Con7  #5/5/3/83/3-3       26          41.4          19
## # … with 46 more rows

You can also specify columns you’d like to remove:

select(litters_data, -pups_survive)
## # A tibble: 49 × 7
##   group litter_number gd0_weight gd18_weight gd_of_birth pups_born_alive
##   <chr> <chr>              <dbl>       <dbl>       <dbl>           <dbl>
## 1 Con7  #85                 19.7        34.7          20               3
## 2 Con7  #1/2/95/2           27          42            19               8
## 3 Con7  #5/5/3/83/3-3       26          41.4          19               6
## # … with 46 more rows, and 1 more variable: pups_dead_birth <dbl>

You can rename variables as part of this process:

select(litters_data, GROUP = group, LiTtEr_NuMbEr = litter_number)
## # A tibble: 49 × 2
##   GROUP LiTtEr_NuMbEr
##   <chr> <chr>        
## 1 Con7  #85          
## 2 Con7  #1/2/95/2    
## 3 Con7  #5/5/3/83/3-3
## # … with 46 more rows

If all you want to do is rename something, you can use rename instead of select. This will rename the variables you care about, and keep everything else:

rename(litters_data, GROUP = group, LiTtEr_NuMbEr = litter_number)
## # A tibble: 49 × 8
##   GROUP LiTtEr_NuMbEr gd0_weight gd18_weight gd_of_birth pups_born_alive
##   <chr> <chr>              <dbl>       <dbl>       <dbl>           <dbl>
## 1 Con7  #85                 19.7        34.7          20               3
## 2 Con7  #1/2/95/2           27          42            19               8
## 3 Con7  #5/5/3/83/3-3       26          41.4          19               6
## # … with 46 more rows, and 2 more variables: pups_dead_birth <dbl>,
## #   pups_survive <dbl>

There are some handy helper functions for select; read about all of them using ?select_helpers. I use starts_with(), ends_with(), and contains() often, especially when there variables are named with suffixes or other standard patterns:

select(litters_data, starts_with("gd"))
## # A tibble: 49 × 3
##   gd0_weight gd18_weight gd_of_birth
##        <dbl>       <dbl>       <dbl>
## 1       19.7        34.7          20
## 2       27          42            19
## 3       26          41.4          19
## # … with 46 more rows

I also frequently use is everything(), which is handy for reorganizing columns without discarding anything:

select(litters_data, litter_number, pups_survive, everything())
## # A tibble: 49 × 8
##   litter_number pups_survive group gd0_weight gd18_weight gd_of_birth
##   <chr>                <dbl> <chr>      <dbl>       <dbl>       <dbl>
## 1 #85                      3 Con7        19.7        34.7          20
## 2 #1/2/95/2                7 Con7        27          42            19
## 3 #5/5/3/83/3-3            5 Con7        26          41.4          19
## # … with 46 more rows, and 2 more variables: pups_born_alive <dbl>,
## #   pups_dead_birth <dbl>

relocate does a similar thing (and is sort of like rename in that it’s handy but not critical):

relocate(litters_data, litter_number, pups_survive)
## # A tibble: 49 × 8
##   litter_number pups_survive group gd0_weight gd18_weight gd_of_birth
##   <chr>                <dbl> <chr>      <dbl>       <dbl>       <dbl>
## 1 #85                      3 Con7        19.7        34.7          20
## 2 #1/2/95/2                7 Con7        27          42            19
## 3 #5/5/3/83/3-3            5 Con7        26          41.4          19
## # … with 46 more rows, and 2 more variables: pups_born_alive <dbl>,
## #   pups_dead_birth <dbl>
…
drop_na(litters_data, wt_increase) will remove rows for which wt_increase is missing.

Filtering can be helpful for limiting a dataset to only those observations needed for an analysis. However, I recommend against the creation of many data subsets (e.g. one for each group). This can clutter up your workspace, and we’ll see good tools for the analysis of subsets before long.

mutate

Sometimes you need to select columns; sometimes you need to change them or create new ones. You can do this using mutate.

The example below creates a new variable measuring the difference between gd18_weight and gd0_weight and modifies the existing group variable.

mutate(litters_data,
  wt_gain = gd18_weight - gd0_weight,
  group = str_to_lower(group)
)
## # A tibble: 49 × 9
##   group litter_number gd0_weight gd18_weight gd_of_birth pups_born_alive
##   <chr> <chr>              <dbl>       <dbl>       <dbl>           <dbl>
## 1 con7  #85                 19.7        34.7          20               3
## 2 con7  #1/2/95/2           27          42            19               8
## 3 con7  #5/5/3/83/3-3       26          41.4          19               6
## # … with 46 more rows, and 3 more variables: pups_dead_birth <dbl>,
## #   pups_survive <dbl>, wt_gain <dbl>
…
## dbl (6): GD0 weight, GD18 weight, GD of Birth, Pups born alive, Pups dead @ ...
## 
## ℹ Use `spec()` to retrieve the full column specification for this data.
## ℹ Specify the column types or set `show_col_types = FALSE` to quiet this message.
litters_data_clean_names = janitor::clean_names(litters_data_raw)
litters_data_selected_cols = select(litters_data_clean_names, -pups_survive)
litters_data_with_vars = 
  mutate(
    litters_data_selected_cols, 
    wt_gain = gd18_weight - gd0_weight,
    group = str_to_lower(group))
litters_data_with_vars_without_missing = 
  drop_na(litters_data_with_vars, wt_gain)
litters_data_with_vars_without_missing
## # A tibble: 31 × 8
##   group litter_number gd0_weight gd18_weight gd_of_birth pups_born_alive
##   <chr> <chr>              <dbl>       <dbl>       <dbl>           <dbl>
## 1 con7  #85                 19.7        34.7          20               3
## 2 con7  #1/2/95/2           27          42            19               8
## 3 con7  #5/5/3/83/3-3       26          41.4          19               6
## # … with 28 more rows, and 2 more variables: pups_dead_birth <dbl>,
## #   wt_gain <dbl>
…
litters_data_clean
## # A tibble: 31 × 8
##   group litter_number gd0_weight gd18_weight gd_of_birth pups_born_alive
##   <chr> <chr>              <dbl>       <dbl>       <dbl>           <dbl>
## 1 con7  #85                 19.7        34.7          20               3
## 2 con7  #1/2/95/2           27          42            19               8
## 3 con7  #5/5/3/83/3-3       26          41.4          19               6
## # … with 28 more rows, and 2 more variables: pups_dead_birth <dbl>,
## #   wt_gain <dbl>
…
litters_data
## # A tibble: 31 × 8
##   group litter_number gd0_weight gd18_weight gd_of_birth pups_born_alive
##   <chr> <chr>              <dbl>       <dbl>       <dbl>           <dbl>
## 1 con7  #85                 19.7        34.7          20               3
## 2 con7  #1/2/95/2           27          42            19               8
## 3 con7  #5/5/3/83/3-3       26          41.4          19               6
## # … with 28 more rows, and 2 more variables: pups_dead_birth <dbl>,
## #   wt_gain <dbl>
…
